{
	"credit": "Made with Blockbench",
	"ambientocclusion": false,
	"textures": {
		"bottom": "block/warped_door_bottom",
		"particle": "block/warped_door_top",
		"top": "block/warped_door_top"
	},
	"elements": [
		{
			"name": "Grid",
			"from": [1.5, 0, 0],
			"to": [1.5, 16, 16],
			"faces": {
				"east": {"uv": [0, 0, 16, 16], "texture": "#top"},
				"west": {"uv": [0, 0, 16, 16], "texture": "#top", "cullface": "west"}
			}
		},
		{
			"name": "Top",
			"from": [0, 13, 3],
			"to": [3, 16, 13],
			"faces": {
				"east": {"uv": [13, 0, 3, 3], "texture": "#top"},
				"west": {"uv": [3, 0, 13, 3], "texture": "#top", "cullface": "west"},
				"up": {"uv": [0, 13, 3, 3], "texture": "#bottom", "cullface": "up"},
				"down": {"uv": [0, 3, 3, 13], "texture": "#bottom", "cullface": "down"}
			}
		},
		{
			"name": "Left",
			"from": [0, 0, 0],
			"to": [3, 16, 3],
			"faces": {
				"north": {"uv": [3, 0, 0, 16], "texture": "#top"},
				"east": {"uv": [3, 0, 0, 16], "texture": "#top"},
				"south": {"uv": [3, 0, 0, 16], "texture": "#top"},
				"west": {"uv": [0, 0, 3, 16], "texture": "#top", "cullface": "west"},
				"up": {"uv": [0, 3, 3, 0], "texture": "#top", "cullface": "up"},
				"down": {"uv": [0, 0, 3, 3], "texture": "#top", "cullface": "down"}
			}
		},
		{
			"name": "Right",
			"from": [0, 0, 13],
			"to": [3, 16, 16],
			"faces": {
				"north": {"uv": [0, 0, 3, 16], "texture": "#top"},
				"east": {"uv": [16, 0, 13, 16], "texture": "#top"},
				"south": {"uv": [0, 0, 3, 16], "texture": "#top"},
				"west": {"uv": [13, 0, 16, 16], "texture": "#top", "cullface": "west"},
				"up": {"uv": [0, 3, 3, 0], "texture": "#top", "cullface": "up"},
				"down": {"uv": [0, 0, 3, 3], "texture": "#top", "cullface": "down"}
			}
		}
	]
}