{
	"credit": "Designed by HanFox with Cubik Studio - https://cubik.studio",
	"parent": "block/black_candle_one_candle",
	"textures": {
		"all": "block/candles_lit_01",
		"particle": "block/candle"
	}
}