{
	"credit": "Made with Blockbench",
	"parent": "block/block",
	"textures": {
		"down": "block/dried_kelp_bottom",
		"up": "block/dried_kelp_top",
		"particle": "block/dried_kelp_side",
		"west": "block/dried_kelp_side"
	},
	"elements": [
		{
			"from": [0, 0, 0],
			"to": [16, 16, 16],
			"faces": {
				"north": {"uv": [16, 0, 0, 16], "texture": "#west", "cullface": "north"},
				"east": {"uv": [16, 0, 0, 16], "texture": "#west", "cullface": "east"},
				"south": {"uv": [0, 0, 16, 16], "texture": "#west", "cullface": "south"},
				"west": {"uv": [0, 0, 16, 16], "texture": "#west", "cullface": "west"},
				"up": {"uv": [0, 0, 16, 16], "texture": "#up", "cullface": "up"},
				"down": {"uv": [0, 0, 16, 16], "texture": "#down", "cullface": "down"}
			}
		},
		{
			"from": [7.5, 16, 0],
			"to": [8.5, 16.25, 16],
			"faces": {
				"north": {"uv": [8.5, 0, 7.5, 0.25], "texture": "#up"},
				"east": {"uv": [7.5, 5.5, 8.5, 5.75], "texture": "#up"},
				"south": {"uv": [7.5, 0, 8.5, 0.25], "texture": "#up"},
				"west": {"uv": [7.5, 5.5, 8.5, 5.75], "texture": "#up"},
				"up": {"uv": [7.5, 0, 8.5, 16], "texture": "#up"},
				"down": {"uv": [0, 0, 1, 16], "texture": "#missing"}
			}
		},
		{
			"from": [0, 16, 7.5],
			"to": [16, 16.25, 8.5],
			"faces": {
				"north": {"uv": [7.5, 5.5, 8.5, 5.75], "texture": "#up"},
				"east": {"uv": [8.5, 0, 7.5, 0.25], "texture": "#up"},
				"south": {"uv": [7.5, 5.5, 8.5, 5.75], "texture": "#up"},
				"west": {"uv": [7.5, 0, 8.5, 0.25], "texture": "#up"},
				"up": {"uv": [7.5, 0, 8.5, 16], "rotation": 90, "texture": "#up"},
				"down": {"uv": [0, 0, 1, 16], "rotation": 270, "texture": "#missing"}
			}
		},
		{
			"from": [7.5, -0.25, 0],
			"to": [8.5, 0, 16],
			"faces": {
				"north": {"uv": [8.5, 0, 7.5, 0.25], "texture": "#up"},
				"east": {"uv": [7.5, 5.5, 8.5, 5.75], "texture": "#up"},
				"south": {"uv": [7.5, 0, 8.5, 0.25], "texture": "#up"},
				"west": {"uv": [7.5, 5.5, 8.5, 5.75], "texture": "#up"},
				"up": {"uv": [7.5, 0, 8.5, 16], "texture": "#up"},
				"down": {"uv": [7.5, 0, 8.5, 16], "texture": "#down"}
			}
		},
		{
			"from": [0, -0.25, 7.5],
			"to": [16, 0, 8.5],
			"faces": {
				"north": {"uv": [7.5, 5.5, 8.5, 5.75], "texture": "#up"},
				"east": {"uv": [8.5, 0, 7.5, 0.25], "texture": "#up"},
				"south": {"uv": [7.5, 5.5, 8.5, 5.75], "texture": "#up"},
				"west": {"uv": [7.5, 0, 8.5, 0.25], "texture": "#up"},
				"up": {"uv": [7.5, 0, 8.5, 16], "rotation": 90, "texture": "#up"},
				"down": {"uv": [7.5, 0, 8.5, 16], "rotation": 270, "texture": "#west"}
			}
		},
		{
			"from": [-0.25, 0, 7.5],
			"to": [0, 16, 8.5],
			"rotation": {"angle": 0, "axis": "z", "origin": [15, 16, 8]},
			"faces": {
				"north": {"uv": [7.5, 5.5, 8.5, 5.75], "rotation": 270, "texture": "#up"},
				"east": {"uv": [7.5, 0, 8.5, 16], "rotation": 180, "texture": "#up"},
				"south": {"uv": [7.5, 5.5, 8.5, 5.75], "rotation": 90, "texture": "#up"},
				"west": {"uv": [7.5, 0, 8.5, 16], "texture": "#west"},
				"up": {"uv": [7.5, 0, 8.5, 0.25], "rotation": 90, "texture": "#up"},
				"down": {"uv": [8.5, 0, 7.5, 0.25], "rotation": 90, "texture": "#up"}
			}
		},
		{
			"from": [7.5, 0, -0.25],
			"to": [8.5, 16, 0],
			"rotation": {"angle": 0, "axis": "y", "origin": [15, 16, 8]},
			"faces": {
				"north": {"uv": [8.5, 0, 7.5, 16], "texture": "#west"},
				"east": {"uv": [7.5, 5.5, 8.5, 5.75], "rotation": 270, "texture": "#up"},
				"south": {"uv": [7.5, 0, 8.5, 16], "rotation": 180, "texture": "#up"},
				"west": {"uv": [7.5, 5.5, 8.5, 5.75], "rotation": 90, "texture": "#up"},
				"up": {"uv": [7.5, 0, 8.5, 0.25], "rotation": 180, "texture": "#up"},
				"down": {"uv": [8.5, 0, 7.5, 0.25], "texture": "#up"}
			}
		},
		{
			"from": [7.5, 0, 16],
			"to": [8.5, 16, 16.25],
			"rotation": {"angle": 0, "axis": "y", "origin": [15, 16, 8]},
			"faces": {
				"north": {"uv": [8.5, 0, 7.5, 16], "texture": "#west"},
				"east": {"uv": [7.5, 5.5, 8.5, 5.75], "rotation": 270, "texture": "#up"},
				"south": {"uv": [8.5, 0, 7.5, 16], "rotation": 180, "texture": "#up"},
				"west": {"uv": [7.5, 5.5, 8.5, 5.75], "rotation": 90, "texture": "#up"},
				"up": {"uv": [7.5, 0, 8.5, 0.25], "rotation": 180, "texture": "#up"},
				"down": {"uv": [8.5, 0, 7.5, 0.25], "texture": "#up"}
			}
		},
		{
			"from": [16, 0, 7.5],
			"to": [16.25, 16, 8.5],
			"rotation": {"angle": 0, "axis": "y", "origin": [15, 16, 8]},
			"faces": {
				"north": {"uv": [7.5, 5.5, 8.5, 5.75], "rotation": 270, "texture": "#up"},
				"east": {"uv": [7.5, 0, 8.5, 16], "rotation": 180, "texture": "#up"},
				"south": {"uv": [7.5, 5.5, 8.5, 5.75], "rotation": 90, "texture": "#up"},
				"west": {"uv": [7.5, 0, 8.5, 16], "texture": "#west"},
				"up": {"uv": [7.5, 0, 8.5, 0.25], "rotation": 90, "texture": "#up"},
				"down": {"uv": [8.5, 0, 7.5, 0.25], "rotation": 90, "texture": "#up"}
			}
		}
	]
}