{
	"credit": "Made with Blockbench",
	"parent": "block/block",
	"textures": {
		"bottom": "block/end_stone",
		"top": "block/end_portal_frame_top",
		"particle": "block/end_portal_frame_side",
		"side": "block/end_portal_frame_side"
	},
	"elements": [
		{
			"name": "base",
			"from": [0, 0, 0],
			"to": [16, 12, 16],
			"faces": {
				"north": {"uv": [0, 4, 16, 16], "texture": "#side", "cullface": "north"},
				"east": {"uv": [0, 4, 16, 16], "texture": "#side", "cullface": "east"},
				"south": {"uv": [0, 4, 16, 16], "texture": "#side", "cullface": "south"},
				"west": {"uv": [0, 4, 16, 16], "texture": "#side", "cullface": "west"},
				"up": {"uv": [0, 0, 16, 16], "texture": "#top"},
				"down": {"uv": [0, 0, 16, 16], "texture": "#bottom", "cullface": "down"}
			}
		},
		{
			"from": [-0.1, 5.75, -0.1],
			"to": [16.1, 7, 0],
			"faces": {
				"north": {"uv": [0, 9, 16, 10.25], "texture": "#side"},
				"east": {"uv": [0, 9, 0.1, 10.25], "texture": "#side"},
				"west": {"uv": [15.9, 9, 16, 10.25], "texture": "#side"},
				"up": {"uv": [0, 9, 16, 9.1], "texture": "#side"},
				"down": {"uv": [0, 10.125, 16, 10.225], "texture": "#side"}
			}
		},
		{
			"from": [-0.1, 5.75, 0],
			"to": [0, 7, 16],
			"faces": {
				"north": {"uv": [0, 0, 0.1, 1.25], "texture": "#side"},
				"south": {"uv": [0, 0, 0.1, 1.25], "texture": "#side"},
				"west": {"uv": [0, 9, 16, 10.25], "texture": "#side"},
				"up": {"uv": [0, 9, 16, 9.1], "rotation": 90, "texture": "#side"},
				"down": {"uv": [0, 10.125, 16, 10.225], "rotation": 90, "texture": "#side"}
			}
		},
		{
			"from": [16, 5.75, 0],
			"to": [16.1, 7, 16],
			"faces": {
				"north": {"uv": [0, 0, 0.1, 1.25], "texture": "#side"},
				"east": {"uv": [0, 9, 16, 10.25], "texture": "#side"},
				"south": {"uv": [0, 0, 0.1, 1.25], "texture": "#side"},
				"up": {"uv": [0, 9, 16, 9.1], "rotation": 90, "texture": "#side"},
				"down": {"uv": [0, 10.125, 16, 10.225], "rotation": 90, "texture": "#side"}
			}
		},
		{
			"from": [-0.1, 5.75, 16],
			"to": [16.1, 7, 16.1],
			"faces": {
				"east": {"uv": [0, 9, 0.1, 10.25], "texture": "#side"},
				"south": {"uv": [0, 9, 16, 10.25], "texture": "#side"},
				"west": {"uv": [15.9, 9, 16, 10.25], "texture": "#side"},
				"up": {"uv": [0, 9, 16, 9.1], "texture": "#side"},
				"down": {"uv": [0, 10.125, 16, 10.225], "texture": "#side"}
			}
		},
		{
			"from": [0, 12, 0],
			"to": [1.75, 13, 16],
			"faces": {
				"east": {"uv": [1.75, 16, 0.75, 0], "rotation": 90, "texture": "#top"},
				"up": {"uv": [0, 0, 1.75, 16], "texture": "#top"}
			}
		},
		{
			"from": [14.25, 12, 0],
			"to": [16, 13, 16],
			"faces": {
				"west": {"uv": [14.25, 0, 15.25, 16], "rotation": 90, "texture": "#top"},
				"up": {"uv": [14.25, 0, 16, 16], "texture": "#top"}
			}
		},
		{
			"from": [1.75, 12, 0],
			"to": [14.25, 13, 1.75],
			"faces": {
				"south": {"uv": [1.75, 1.75, 14.25, 0.75], "texture": "#top"},
				"up": {"uv": [1.75, 0, 14.25, 1.75], "texture": "#top"}
			}
		},
		{
			"from": [1.75, 12, 14.25],
			"to": [14.25, 13, 16],
			"faces": {
				"north": {"uv": [1.75, 14.25, 14.25, 15.25], "texture": "#top"},
				"up": {"uv": [1.75, 14.25, 14.25, 16], "texture": "#top"}
			}
		},
		{
			"from": [4.25, 12, 4],
			"to": [5, 13, 11.75],
			"faces": {
				"north": {"uv": [4.25, 4, 5, 4.25], "texture": "#top"},
				"east": {"uv": [4.75, 4, 5, 11.75], "rotation": 90, "texture": "#top"},
				"south": {"uv": [4.25, 11.5, 5, 11.75], "texture": "#top"},
				"west": {"uv": [4.25, 4, 4.5, 11.75], "rotation": 90, "texture": "#top"},
				"up": {"uv": [4.25, 4, 5, 11.75], "texture": "#top"}
			}
		},
		{
			"from": [11, 12, 4],
			"to": [11.75, 13, 11.75],
			"faces": {
				"north": {"uv": [11, 4, 11.75, 4.25], "texture": "#top"},
				"east": {"uv": [11.5, 4, 11.75, 11.75], "rotation": 90, "texture": "#top"},
				"south": {"uv": [11, 11.5, 11.75, 11.75], "texture": "#top"},
				"west": {"uv": [11, 4, 11.25, 11.75], "rotation": 90, "texture": "#top"},
				"up": {"uv": [11, 4, 11.75, 11.75], "texture": "#top"}
			}
		},
		{
			"from": [5, 12, 4],
			"to": [11, 13, 4.75],
			"faces": {
				"north": {"uv": [5, 4, 11, 4.25], "texture": "#top"},
				"south": {"uv": [5, 4.5, 11, 4.75], "texture": "#top"},
				"up": {"uv": [5, 4, 11, 4.75], "texture": "#top"}
			}
		},
		{
			"from": [5, 12, 11],
			"to": [11, 13, 11.75],
			"faces": {
				"north": {"uv": [5, 11, 11, 11.25], "texture": "#top"},
				"south": {"uv": [5, 11.5, 11, 11.75], "texture": "#top"},
				"up": {"uv": [5, 11, 11, 11.75], "texture": "#top"}
			}
		},
		{
			"from": [-0.1, 12, -0.1],
			"to": [16.1, 12.1, 0.75],
			"faces": {
				"down": {"uv": [0, 3, 16, 3.85], "texture": "#side"}
			}
		},
		{
			"from": [-0.1, 12, 0.75],
			"to": [0.75, 12.1, 15.2],
			"faces": {
				"down": {"uv": [0.75, 3, 15.2, 3.85], "rotation": 90, "texture": "#side"}
			}
		},
		{
			"from": [-0.1, 12, 15.2],
			"to": [16.1, 12.1, 16.1],
			"faces": {
				"down": {"uv": [0, 3, 16, 3.85], "texture": "#side"}
			}
		},
		{
			"from": [15.25, 12, 0.75],
			"to": [16.1, 12.1, 15.2],
			"faces": {
				"down": {"uv": [0.675, 3.1125, 15.125, 3.9625], "rotation": 90, "texture": "#side"}
			}
		},
		{
			"from": [-0.1, 13, -0.1],
			"to": [16.1, 13.1, 0.75],
			"faces": {
				"south": {"uv": [0, 0.65, 16, 0.75], "texture": "#top"},
				"up": {"uv": [0, 0, 16, 0.75], "texture": "#top"}
			}
		},
		{
			"from": [-0.1, 13, 0.75],
			"to": [0.75, 13.1, 15.2],
			"faces": {
				"east": {"uv": [0.65, 0.8, 0.75, 15.25], "rotation": 90, "texture": "#top"},
				"up": {"uv": [0, 0.8, 0.75, 15.25], "texture": "#top"}
			}
		},
		{
			"from": [-0.1, 13, 15.2],
			"to": [16.1, 13.1, 16.1],
			"faces": {
				"north": {"uv": [0, 15.25, 16, 15.35], "texture": "#top"},
				"up": {"uv": [0, 15.25, 16, 16], "texture": "#top"}
			}
		},
		{
			"from": [15.25, 13, 0.75],
			"to": [16.1, 13.1, 15.2],
			"faces": {
				"west": {"uv": [15.25, 0.8, 15.35, 15.25], "rotation": 90, "texture": "#top"},
				"up": {"uv": [15.25, 0.8, 16, 15.25], "texture": "#top"}
			}
		},
		{
			"from": [-0.1, 12, -0.1],
			"to": [16.1, 13.1, 0.75],
			"rotation": {"angle": 0, "axis": "y", "origin": [8, 0, 8]},
			"faces": {
				"north": {"uv": [0, 3, 16, 4], "texture": "#side"}
			}
		},
		{
			"from": [-0.1, 12, -0.1],
			"to": [0.75, 13.1, 16.1],
			"rotation": {"angle": 0, "axis": "y", "origin": [8, 0, 8]},
			"faces": {
				"west": {"uv": [0, 3, 16, 4], "texture": "#side"}
			}
		},
		{
			"from": [-0.1, 12, 15.25],
			"to": [16.1, 13.1, 16.1],
			"rotation": {"angle": 0, "axis": "y", "origin": [8, 0, 8]},
			"faces": {
				"south": {"uv": [0, 3, 16, 4], "texture": "#side"}
			}
		},
		{
			"from": [15.25, 12, -0.1],
			"to": [16.1, 13.1, 16.1],
			"rotation": {"angle": 0, "axis": "y", "origin": [8, 0, 8]},
			"faces": {
				"east": {"uv": [0, 3, 16, 4], "texture": "#side"}
			}
		}
	],
	"groups": [
		0,
		1,
		2,
		3,
		4,
		5,
		6,
		7,
		8,
		9,
		10,
		11,
		12,
		{
			"name": "group",
			"origin": [8, 8, 8],
			"color": 0,
			"children": [
				{
					"name": "group",
					"origin": [0, 0, 0],
					"color": 0,
					"children": [13, 14, 15, 16]
				},
				{
					"name": "group",
					"origin": [0, 0, 0],
					"color": 0,
					"children": [17, 18, 19, 20]
				},
				{
					"name": "group",
					"origin": [8, 0, 8],
					"color": 0,
					"children": [21, 22, 23, 24]
				}
			]
		}
	]
}