{
	"credit": "Made with Blockbench",
	"parent": "block/block",
	"textures": {
		"4": "block/wall/andesite_top_ns",
		"5": "block/polished_andesite",
		"6": "block/pressure_plate/dark_oak",
		"7": "block/dark_oak_planks",
		"particle": "block/polished_andesite",
		"leg": "block/dark_oak_log"
	},
	"elements": [
		{
			"from": [3, 0, 6.5],
			"to": [4, 7, 7.5],
			"rotation": {"angle": 0, "axis": "y", "origin": [10, 8, 8]},
			"faces": {
				"north": {"uv": [12, 9, 14, 16], "texture": "#leg"},
				"east": {"uv": [6, 9, 10, 16], "texture": "#leg"},
				"south": {"uv": [2, 9, 4, 16], "texture": "#leg"},
				"west": {"uv": [6, 9, 10, 16], "texture": "#leg"},
				"down": {"uv": [2, 6, 4, 10], "texture": "#leg", "cullface": "down"}
			}
		},
		{
			"from": [12, 0, 8.5],
			"to": [13, 7, 9.5],
			"rotation": {"angle": 0, "axis": "y", "origin": [10, 8, 8]},
			"faces": {
				"north": {"uv": [2, 9, 4, 16], "texture": "#leg"},
				"east": {"uv": [6, 9, 10, 16], "texture": "#leg"},
				"south": {"uv": [12, 9, 14, 16], "texture": "#leg"},
				"west": {"uv": [6, 9, 10, 16], "texture": "#leg"},
				"down": {"uv": [2, 6, 4, 10], "rotation": 180, "texture": "#leg", "cullface": "down"}
			}
		},
		{
			"from": [3, 0, 8.5],
			"to": [4, 7, 9.5],
			"rotation": {"angle": 0, "axis": "y", "origin": [10, 8, 8]},
			"faces": {
				"north": {"uv": [12, 9, 14, 16], "texture": "#leg"},
				"east": {"uv": [6, 9, 10, 16], "texture": "#leg"},
				"south": {"uv": [2, 9, 4, 16], "texture": "#leg"},
				"west": {"uv": [6, 9, 10, 16], "texture": "#leg"},
				"down": {"uv": [2, 6, 4, 10], "texture": "#leg", "cullface": "down"}
			}
		},
		{
			"from": [12, 0, 6.5],
			"to": [13, 7, 7.5],
			"rotation": {"angle": 0, "axis": "y", "origin": [10, 8, 8]},
			"faces": {
				"north": {"uv": [2, 9, 4, 16], "texture": "#leg"},
				"east": {"uv": [6, 9, 10, 16], "texture": "#leg"},
				"south": {"uv": [12, 9, 14, 16], "texture": "#leg"},
				"west": {"uv": [6, 9, 10, 16], "texture": "#leg"},
				"down": {"uv": [2, 6, 4, 10], "rotation": 180, "texture": "#leg", "cullface": "down"}
			}
		},
		{
			"from": [2.5, 7, 5],
			"to": [4, 13, 11],
			"rotation": {"angle": 0, "axis": "y", "origin": [10, 8, 8]},
			"faces": {
				"north": {"uv": [0, 0, 6, 16], "texture": "#7"},
				"south": {"uv": [0, 0, 6, 16], "texture": "#7"},
				"west": {"uv": [0, 0, 16, 16], "texture": "#6"},
				"up": {"uv": [0, 0, 6, 16], "texture": "#7"},
				"down": {"uv": [0, 0, 6, 16], "texture": "#7"}
			}
		},
		{
			"from": [12, 7, 5],
			"to": [13.5, 13, 11],
			"rotation": {"angle": 0, "axis": "y", "origin": [10, 8, 8]},
			"faces": {
				"north": {"uv": [0, 0, 6, 16], "texture": "#7"},
				"east": {"uv": [0, 0, 16, 16], "texture": "#6"},
				"south": {"uv": [0, 0, 6, 16], "texture": "#7"},
				"up": {"uv": [0, 0, 6, 16], "rotation": 180, "texture": "#7"},
				"down": {"uv": [0, 0, 6, 16], "rotation": 180, "texture": "#7"}
			}
		},
		{
			"from": [4, 4, 2],
			"to": [12, 16, 14],
			"faces": {
				"north": {"uv": [5, 0, 11, 16], "texture": "#4"},
				"east": {"uv": [0, 0, 16, 16], "texture": "#5"},
				"south": {"uv": [5, 0, 11, 16], "texture": "#4"},
				"west": {"uv": [0, 0, 16, 16], "texture": "#5"},
				"up": {"uv": [5, 0, 11, 16], "texture": "#4"},
				"down": {"uv": [5, 0, 11, 16], "texture": "#4"}
			}
		},
		{
			"from": [2.4, 7.38, 5.38],
			"to": [2.5, 12.63, 10.63],
			"rotation": {"angle": 0, "axis": "y", "origin": [8, 0, 8]},
			"faces": {
				"north": {"uv": [1, 1, 1.25, 15], "texture": "#6"},
				"south": {"uv": [14.75, 1, 15, 15], "texture": "#6"},
				"west": {"uv": [1, 1, 15, 15], "texture": "#6"},
				"up": {"uv": [1, 1, 15, 1.25], "rotation": 90, "texture": "#6"},
				"down": {"uv": [1, 14.75, 15, 15], "rotation": 90, "texture": "#6"}
			}
		},
		{
			"from": [13.5, 7.38, 5.37],
			"to": [13.6, 12.63, 10.62],
			"rotation": {"angle": 0, "axis": "y", "origin": [8, 0, 8]},
			"faces": {
				"north": {"uv": [14.75, 1, 15, 15], "texture": "#6"},
				"east": {"uv": [1, 1, 15, 15], "texture": "#6"},
				"south": {"uv": [1, 1, 1.25, 15], "texture": "#6"},
				"up": {"uv": [1, 1, 15, 1.25], "rotation": 90, "texture": "#6"},
				"down": {"uv": [1, 14.75, 15, 15], "rotation": 90, "texture": "#6"}
			}
		}
	]
}