{
	"credit": "Made with Blockbench",
	"parent": "minecraft:block/cube_all",
	"textures": {
		"all": "block/netherite_block"
	},
	"elements": [
		{
			"name": "base",
			"from": [0.5, 0.5, 0.5],
			"to": [15.5, 15.5, 15.5],
			"faces": {
				"north": {"uv": [0.5, 0.5, 15.5, 15.5], "texture": "#all"},
				"east": {"uv": [0.5, 0.5, 15.5, 15.5], "texture": "#all"},
				"south": {"uv": [0.5, 0.5, 15.5, 15.5], "texture": "#all"},
				"west": {"uv": [0.5, 0.5, 15.5, 15.5], "texture": "#all"},
				"up": {"uv": [0.5, 0.5, 15.5, 15.5], "texture": "#all"},
				"down": {"uv": [0.5, 0.5, 15.5, 15.5], "texture": "#all"}
			}
		},
		{
			"from": [0, 14, 0],
			"to": [16, 16, 0.5],
			"rotation": {"angle": 0, "axis": "y", "origin": [8, 8, 8]},
			"faces": {
				"north": {"uv": [0, 0, 16, 2], "texture": "#all"},
				"down": {"uv": [0, 1.5, 16, 2], "texture": "#all"}
			}
		},
		{
			"from": [0, 2, 0],
			"to": [2, 14, 0.5],
			"rotation": {"angle": 0, "axis": "y", "origin": [8, 8, 8]},
			"faces": {
				"north": {"uv": [14, 2, 16, 14], "texture": "#all"},
				"east": {"uv": [14.5, 2, 14, 14], "texture": "#all"}
			}
		},
		{
			"from": [14, 2, 0],
			"to": [16, 14, 0.5],
			"rotation": {"angle": 0, "axis": "y", "origin": [8, 8, 8]},
			"faces": {
				"north": {"uv": [0, 2, 2, 14], "texture": "#all"},
				"west": {"uv": [2, 2, 1.5, 14], "texture": "#all"}
			}
		},
		{
			"from": [0, 0, 0],
			"to": [16, 2, 0.5],
			"rotation": {"angle": 0, "axis": "y", "origin": [8, 8, 8]},
			"faces": {
				"north": {"uv": [0, 14, 16, 16], "texture": "#all"},
				"up": {"uv": [0, 14, 16, 14.5], "texture": "#all"}
			}
		},
		{
			"from": [0, 14, 0],
			"to": [0.5, 16, 16],
			"rotation": {"angle": 0, "axis": "y", "origin": [8, 8, 8]},
			"faces": {
				"west": {"uv": [0, 0, 16, 2], "texture": "#all"},
				"down": {"uv": [0, 1.5, 16, 2], "rotation": 90, "texture": "#all"}
			}
		},
		{
			"from": [0, 2, 14],
			"to": [0.5, 14, 16],
			"rotation": {"angle": 0, "axis": "y", "origin": [8, 8, 8]},
			"faces": {
				"north": {"uv": [14.5, 2, 14, 14], "texture": "#all"},
				"west": {"uv": [14, 2, 16, 14], "texture": "#all"}
			}
		},
		{
			"from": [0, 2, 0],
			"to": [0.5, 14, 2],
			"rotation": {"angle": 0, "axis": "y", "origin": [8, 8, 8]},
			"faces": {
				"south": {"uv": [2, 2, 1.5, 14], "texture": "#all"},
				"west": {"uv": [0, 2, 2, 14], "texture": "#all"}
			}
		},
		{
			"from": [0, 0, 0],
			"to": [0.5, 2, 16],
			"rotation": {"angle": 0, "axis": "y", "origin": [8, 8, 8]},
			"faces": {
				"west": {"uv": [0, 14, 16, 16], "texture": "#all"},
				"up": {"uv": [0, 14, 16, 14.5], "rotation": 270, "texture": "#all"}
			}
		},
		{
			"from": [0, 14, 15.5],
			"to": [16, 16, 16],
			"rotation": {"angle": 0, "axis": "y", "origin": [8, 8, 8]},
			"faces": {
				"south": {"uv": [0, 0, 16, 2], "texture": "#all"},
				"down": {"uv": [0, 1.5, 16, 2], "rotation": 180, "texture": "#all"}
			}
		},
		{
			"from": [14, 2, 15.5],
			"to": [16, 14, 16],
			"rotation": {"angle": 0, "axis": "y", "origin": [8, 8, 8]},
			"faces": {
				"south": {"uv": [14, 2, 16, 14], "texture": "#all"},
				"west": {"uv": [14.5, 2, 14, 14], "texture": "#all"}
			}
		},
		{
			"from": [0, 2, 15.5],
			"to": [2, 14, 16],
			"rotation": {"angle": 0, "axis": "y", "origin": [8, 8, 8]},
			"faces": {
				"east": {"uv": [2, 2, 1.5, 14], "texture": "#all"},
				"south": {"uv": [0, 2, 2, 14], "texture": "#all"}
			}
		},
		{
			"from": [0, 0, 15.5],
			"to": [16, 2, 16],
			"rotation": {"angle": 0, "axis": "y", "origin": [8, 8, 8]},
			"faces": {
				"south": {"uv": [0, 14, 16, 16], "texture": "#all"},
				"up": {"uv": [0, 14, 16, 14.5], "rotation": 180, "texture": "#all"}
			}
		},
		{
			"from": [15.5, 14, 0],
			"to": [16, 16, 16],
			"rotation": {"angle": 0, "axis": "y", "origin": [8, 8, 8]},
			"faces": {
				"east": {"uv": [0, 0, 16, 2], "texture": "#all"},
				"down": {"uv": [0, 1.5, 16, 2], "rotation": 270, "texture": "#all"}
			}
		},
		{
			"from": [15.5, 2, 0],
			"to": [16, 14, 2],
			"rotation": {"angle": 0, "axis": "y", "origin": [8, 8, 8]},
			"faces": {
				"east": {"uv": [14, 2, 16, 14], "texture": "#all"},
				"south": {"uv": [14.5, 2, 14, 14], "texture": "#all"}
			}
		},
		{
			"from": [15.5, 2, 14],
			"to": [16, 14, 16],
			"rotation": {"angle": 0, "axis": "y", "origin": [8, 8, 8]},
			"faces": {
				"north": {"uv": [2, 2, 1.5, 14], "texture": "#all"},
				"east": {"uv": [0, 2, 2, 14], "texture": "#all"}
			}
		},
		{
			"from": [15.5, 0, 0],
			"to": [16, 2, 16],
			"rotation": {"angle": 0, "axis": "y", "origin": [8, 8, 8]},
			"faces": {
				"east": {"uv": [0, 14, 16, 16], "texture": "#all"},
				"up": {"uv": [0, 14, 16, 14.5], "rotation": 90, "texture": "#all"}
			}
		},
		{
			"from": [0, 15.5, 0],
			"to": [2, 16, 16],
			"rotation": {"angle": 0, "axis": "z", "origin": [8, 8, 8]},
			"faces": {
				"east": {"uv": [0, 1.5, 16, 2], "rotation": 180, "texture": "#all"},
				"up": {"uv": [0, 0, 16, 2], "rotation": 270, "texture": "#all"}
			}
		},
		{
			"from": [2, 15.5, 0],
			"to": [14, 16, 2],
			"rotation": {"angle": 0, "axis": "z", "origin": [8, 8, 8]},
			"faces": {
				"south": {"uv": [14.5, 2, 14, 14], "rotation": 270, "texture": "#all"},
				"up": {"uv": [14, 2, 16, 14], "rotation": 270, "texture": "#all"}
			}
		},
		{
			"from": [2, 15.5, 14],
			"to": [14, 16, 16],
			"rotation": {"angle": 0, "axis": "z", "origin": [8, 8, 8]},
			"faces": {
				"north": {"uv": [2, 2, 1.5, 14], "rotation": 90, "texture": "#all"},
				"up": {"uv": [0, 2, 2, 14], "rotation": 270, "texture": "#all"}
			}
		},
		{
			"from": [14, 15.5, 0],
			"to": [16, 16, 16],
			"rotation": {"angle": 0, "axis": "z", "origin": [8, 8, 8]},
			"faces": {
				"west": {"uv": [0, 14, 16, 14.5], "texture": "#all"},
				"up": {"uv": [0, 14, 16, 16], "rotation": 270, "texture": "#all"}
			}
		},
		{
			"from": [14, 0, 0],
			"to": [16, 0.5, 16],
			"rotation": {"angle": 0, "axis": "z", "origin": [8, 8, 8]},
			"faces": {
				"west": {"uv": [0, 1.5, 16, 2], "texture": "#all"},
				"down": {"uv": [0, 0, 16, 2], "rotation": 90, "texture": "#all"}
			}
		},
		{
			"from": [2, 0, 0],
			"to": [14, 0.5, 2],
			"rotation": {"angle": 0, "axis": "z", "origin": [8, 8, 8]},
			"faces": {
				"south": {"uv": [14.5, 2, 14, 14], "rotation": 90, "texture": "#all"},
				"down": {"uv": [14, 2, 16, 14], "rotation": 90, "texture": "#all"}
			}
		},
		{
			"from": [2, 0, 14],
			"to": [14, 0.5, 16],
			"rotation": {"angle": 0, "axis": "z", "origin": [8, 8, 8]},
			"faces": {
				"north": {"uv": [2, 2, 1.5, 14], "rotation": 270, "texture": "#all"},
				"down": {"uv": [0, 2, 2, 14], "rotation": 90, "texture": "#all"}
			}
		},
		{
			"from": [0, 0, 0],
			"to": [2, 0.5, 16],
			"rotation": {"angle": 0, "axis": "z", "origin": [8, 8, 8]},
			"faces": {
				"east": {"uv": [0, 14, 16, 14.5], "rotation": 180, "texture": "#all"},
				"down": {"uv": [0, 14, 16, 16], "rotation": 90, "texture": "#all"}
			}
		}
	],
	"groups": [
		0,
		{
			"name": "face_edge",
			"origin": [0, 0, 0],
			"color": 0,
			"children": [1, 2, 3, 4]
		},
		{
			"name": "face_edge",
			"origin": [0, 0, 0],
			"color": 0,
			"children": [5, 6, 7, 8]
		},
		{
			"name": "face_edge",
			"origin": [0, 0, 0],
			"color": 0,
			"children": [9, 10, 11, 12]
		},
		{
			"name": "face_edge",
			"origin": [0, 0, 0],
			"color": 0,
			"children": [13, 14, 15, 16]
		},
		{
			"name": "face_edge",
			"origin": [0, 0, 0],
			"color": 0,
			"children": [17, 18, 19, 20]
		},
		{
			"name": "face_edge",
			"origin": [0, 0, 0],
			"color": 0,
			"children": [21, 22, 23, 24]
		}
	]
}