{
  "textures": {
    "particle": "block/candle",
    "all": "block/candles_02"
  },
  "elements": [
    {
      "__comment": "Element",
      "from": [6, 0, 8],
      "to": [8, 3, 10],
      "faces": {
        "down": {
          "uv": [10, 14, 12, 16],
          "texture": "#all",
          "cullface": "down"
        },
        "up": { "uv": [10, 6, 12, 8], "texture": "#all" },
        "north": { "uv": [10, 8, 12, 11], "texture": "#all" },
        "south": { "uv": [10, 8, 12, 11], "texture": "#all" },
        "west": { "uv": [10, 8, 12, 11], "texture": "#all" },
        "east": { "uv": [10, 8, 12, 11], "texture": "#all" }
      }
    },
    {
      "__comment": "Element",
      "from": [6.5, 3, 9],
      "to": [7.5, 4, 9.001],
      "rotation": { "origin": [7, 3, 9], "axis": "y", "angle": 45 },
      "faces": {
        "north": { "uv": [0, 5, 1, 6], "texture": "#all" },
        "south": { "uv": [1, 5, 0, 6], "texture": "#all" }
      }
    },
    {
      "__comment": "Element",
      "from": [6.5, 3, 9],
      "to": [7.5, 4, 9.001],
      "rotation": { "origin": [7, 3, 9], "axis": "y", "angle": -45 },
      "faces": {
        "north": { "uv": [0, 5, 1, 6], "texture": "#all" },
        "south": { "uv": [1, 5, 0, 6], "texture": "#all" }
      }
    },
    {
      "__comment": "Element",
      "from": [9, 0, 8],
      "to": [11, 5, 10],
      "faces": {
        "down": {
          "uv": [10, 14, 12, 16],
          "texture": "#all",
          "cullface": "down"
        },
        "up": { "uv": [10, 6, 12, 8], "texture": "#all" },
        "north": { "uv": [10, 8, 12, 13], "texture": "#all" },
        "south": { "uv": [10, 8, 12, 13], "texture": "#all" },
        "west": { "uv": [10, 8, 12, 13], "texture": "#all" },
        "east": { "uv": [10, 8, 12, 13], "texture": "#all" }
      }
    },
    {
      "__comment": "Element",
      "from": [9.5, 5, 9],
      "to": [10.5, 6, 9.001],
      "rotation": { "origin": [10, 5, 9], "axis": "y", "angle": 45 },
      "faces": {
        "north": { "uv": [0, 5, 1, 6], "texture": "#all" },
        "south": { "uv": [1, 5, 0, 6], "texture": "#all" }
      }
    },
    {
      "__comment": "Element",
      "from": [9.5, 5, 9],
      "to": [10.5, 6, 9.001],
      "rotation": { "origin": [10, 5, 9], "axis": "y", "angle": -45 },
      "faces": {
        "north": { "uv": [0, 5, 1, 6], "texture": "#all" },
        "south": { "uv": [1, 5, 0, 6], "texture": "#all" }
      }
    },
    {
      "__comment": "Element",
      "from": [5, 0, 5],
      "to": [7, 5, 7],
      "faces": {
        "down": {
          "uv": [10, 14, 12, 16],
          "texture": "#all",
          "cullface": "down"
        },
        "up": { "uv": [10, 6, 12, 8], "texture": "#all" },
        "north": { "uv": [10, 8, 12, 13], "texture": "#all" },
        "south": { "uv": [10, 8, 12, 13], "texture": "#all" },
        "west": { "uv": [10, 8, 12, 13], "texture": "#all" },
        "east": { "uv": [10, 8, 12, 13], "texture": "#all" }
      }
    },
    {
      "__comment": "Element",
      "from": [5.5, 5, 6],
      "to": [6.5, 6, 6.001],
      "rotation": { "origin": [6, 5, 6], "axis": "y", "angle": 45 },
      "faces": {
        "north": { "uv": [0, 5, 1, 6], "texture": "#all" },
        "south": { "uv": [1, 5, 0, 6], "texture": "#all" }
      }
    },
    {
      "__comment": "Element",
      "from": [5.5, 5, 6],
      "to": [6.5, 6, 6.001],
      "rotation": { "origin": [6, 5, 6], "axis": "y", "angle": -45 },
      "faces": {
        "north": { "uv": [0, 5, 1, 6], "texture": "#all" },
        "south": { "uv": [1, 5, 0, 6], "texture": "#all" }
      }
    },
    {
      "__comment": "Element",
      "from": [8, 0, 5],
      "to": [10, 6, 7],
      "faces": {
        "down": {
          "uv": [10, 14, 12, 16],
          "texture": "#all",
          "cullface": "down"
        },
        "up": { "uv": [10, 6, 12, 8], "texture": "#all" },
        "north": { "uv": [10, 8, 12, 14], "texture": "#all" },
        "south": { "uv": [10, 8, 12, 14], "texture": "#all" },
        "west": { "uv": [10, 8, 12, 14], "texture": "#all" },
        "east": { "uv": [10, 8, 12, 14], "texture": "#all" }
      }
    },
    {
      "__comment": "Element",
      "from": [8.5, 6, 6],
      "to": [9.5, 7, 6.001],
      "rotation": { "origin": [9, 6, 6], "axis": "y", "angle": 45 },
      "faces": {
        "north": { "uv": [0, 5, 1, 6], "texture": "#all" },
        "south": { "uv": [0, 5, 1, 6], "texture": "#all" }
      }
    },
    {
      "__comment": "Element",
      "from": [8.5, 6, 6],
      "to": [9.5, 7, 6.001],
      "rotation": { "origin": [9, 6, 6], "axis": "y", "angle": -45 },
      "faces": {
        "north": { "uv": [0, 5, 1, 6], "texture": "#all" },
        "south": { "uv": [0, 5, 1, 6], "texture": "#all" }
      }
    }
  ]
}
