{
	"credit": "Made with Blockbench",
	"parent": "minecraft:block/orientable_with_bottom",
	"textures": {
		"4": "block/smoker_hatch",
		"5": "block/smoker_front_on",
		"particle": "block/smoker_hatch",
		"bottom": "block/smoker_bottom",
		"front": "block/smoker_front",
		"side": "block/smoker_side",
		"top": "block/smoker_top"
	},
	"elements": [
		{
			"from": [2, 0, 2],
			"to": [14, 16, 14],
			"faces": {
				"north": {"uv": [2, 0, 14, 16], "texture": "#front"},
				"east": {"uv": [0, 0, 12, 16], "texture": "#missing"},
				"south": {"uv": [0, 0, 12, 16], "texture": "#missing"},
				"west": {"uv": [0, 0, 12, 16], "texture": "#missing"},
				"up": {"uv": [2, 2, 14, 14], "texture": "#top"},
				"down": {"uv": [2, 2, 14, 14], "rotation": 180, "texture": "#bottom"}
			}
		},
		{
			"from": [2, 0, 0],
			"to": [14, 2, 2],
			"faces": {
				"north": {"uv": [2, 14, 14, 16], "texture": "#front"},
				"south": {"uv": [0, 0, 12, 2], "texture": "#missing"},
				"up": {"uv": [2, 12.5, 14, 14.5], "rotation": 180, "texture": "#front"},
				"down": {"uv": [2, 0, 14, 2], "rotation": 180, "texture": "#bottom"}
			}
		},
		{
			"from": [2, 6.5, 0],
			"to": [14, 8, 2],
			"faces": {
				"north": {"uv": [2, 8, 14, 9.5], "texture": "#front"},
				"south": {"uv": [0, 0, 12, 1.5], "texture": "#missing"},
				"up": {"uv": [2, 7, 14, 9], "rotation": 180, "texture": "#front"},
				"down": {"uv": [2, 9, 14, 11], "rotation": 180, "texture": "#front"}
			}
		},
		{
			"from": [2, 8, 0],
			"to": [5, 11.5, 2],
			"faces": {
				"north": {"uv": [11, 4.5, 14, 8], "texture": "#front"},
				"east": {"uv": [10, 4.5, 12, 8], "texture": "#front"},
				"south": {"uv": [0, 0, 3, 3.5], "texture": "#missing"}
			}
		},
		{
			"from": [11, 8, 0],
			"to": [14, 11.5, 2],
			"faces": {
				"north": {"uv": [2, 4.5, 5, 8], "texture": "#front"},
				"south": {"uv": [0, 0, 3, 3.5], "texture": "#missing"},
				"west": {"uv": [4, 4.5, 6, 8], "texture": "#front"}
			}
		},
		{
			"from": [2, 11.5, 0],
			"to": [14, 13.5, 2],
			"faces": {
				"north": {"uv": [2, 2.5, 14, 4.5], "texture": "#front"},
				"south": {"uv": [0, 0, 12, 2], "texture": "#missing"},
				"up": {"uv": [2, 2.5, 14, 4.5], "texture": "#front"},
				"down": {"uv": [2, 3.5, 14, 5.5], "rotation": 180, "texture": "#front"}
			}
		},
		{
			"from": [2, 15, 0],
			"to": [14, 16, 2],
			"faces": {
				"north": {"uv": [2, 0, 14, 1], "texture": "#front"},
				"up": {"uv": [2, 0, 14, 2], "texture": "#top"},
				"down": {"uv": [2, 2, 14, 0], "texture": "#front"}
			}
		},
		{
			"from": [2, 13.5, 1],
			"to": [14, 15, 2],
			"faces": {
				"north": {"uv": [2, 1, 14, 2.5], "texture": "#front"}
			}
		},
		{
			"from": [2, 2, 0],
			"to": [2.5, 6.5, 2],
			"faces": {
				"north": {"uv": [13.5, 9.5, 14, 14], "texture": "#front"},
				"east": {"uv": [12, 9.5, 14, 14], "texture": "#front"}
			}
		},
		{
			"from": [13.5, 2, 0],
			"to": [14, 6.5, 2],
			"faces": {
				"north": {"uv": [2, 9.5, 2.5, 14], "texture": "#front"},
				"west": {"uv": [2, 9.5, 4, 14], "texture": "#front"}
			}
		},
		{
			"from": [0, -0.1, 0],
			"to": [2, 16.1, 2],
			"faces": {
				"north": {"uv": [14, 0, 16, 16], "texture": "#front"},
				"east": {"uv": [0, 0, 2, 16], "texture": "#front"},
				"south": {"uv": [0, 0, 2, 16], "texture": "#side"},
				"west": {"uv": [0, 0, 2, 16], "texture": "#side"},
				"up": {"uv": [0, 0, 2, 2], "texture": "#top"},
				"down": {"uv": [14, 0, 16, 2], "texture": "#bottom"}
			}
		},
		{
			"from": [0, -0.1, 14],
			"to": [2, 16.1, 16],
			"faces": {
				"north": {"uv": [14, 0, 16, 16], "texture": "#side"},
				"east": {"uv": [0, 0, 2, 16], "texture": "#side"},
				"south": {"uv": [0, 0, 2, 16], "texture": "#side"},
				"west": {"uv": [14, 0, 16, 16], "texture": "#side"},
				"up": {"uv": [0, 14, 2, 16], "texture": "#top"},
				"down": {"uv": [14, 14, 16, 16], "texture": "#bottom"}
			}
		},
		{
			"from": [14, -0.1, 14],
			"to": [16, 16.1, 16],
			"faces": {
				"north": {"uv": [0, 0, 2, 16], "texture": "#side"},
				"east": {"uv": [0, 0, 2, 16], "texture": "#side"},
				"south": {"uv": [14, 0, 16, 16], "texture": "#side"},
				"west": {"uv": [14, 0, 16, 16], "texture": "#side"},
				"up": {"uv": [14, 14, 16, 16], "texture": "#top"},
				"down": {"uv": [0, 14, 2, 16], "texture": "#bottom"}
			}
		},
		{
			"from": [14, -0.1, 0],
			"to": [16, 16.1, 2],
			"faces": {
				"north": {"uv": [0, 0, 2, 16], "texture": "#front"},
				"east": {"uv": [14, 0, 16, 16], "texture": "#side"},
				"south": {"uv": [14, 0, 16, 16], "texture": "#side"},
				"west": {"uv": [0, 0, 2, 16], "texture": "#front"},
				"up": {"uv": [14, 0, 16, 2], "texture": "#top"},
				"down": {"uv": [0, 0, 2, 2], "texture": "#bottom"}
			}
		},
		{
			"from": [0, 0, 2],
			"to": [2, 5, 14],
			"faces": {
				"west": {"uv": [2, 11, 14, 16], "texture": "#side"},
				"up": {"uv": [2, 13, 14, 11], "rotation": 90, "texture": "#side"},
				"down": {"uv": [14, 2, 16, 14], "rotation": 180, "texture": "#bottom"}
			}
		},
		{
			"from": [1, 5, 2],
			"to": [2, 6.5, 14],
			"faces": {
				"west": {"uv": [2, 9.5, 14, 11], "texture": "#side"}
			}
		},
		{
			"from": [0, 6.5, 2],
			"to": [2, 13.5, 14],
			"faces": {
				"east": {"uv": [0, 0, 12, 7], "texture": "#missing"},
				"west": {"uv": [2, 2.5, 14, 9.5], "texture": "#side"},
				"up": {"uv": [2, 4.5, 14, 2.5], "rotation": 90, "texture": "#side"},
				"down": {"uv": [2, 7.5, 14, 9.5], "rotation": 90, "texture": "#side"}
			}
		},
		{
			"from": [1, 13.5, 2],
			"to": [2, 15, 14],
			"faces": {
				"west": {"uv": [2, 1, 14, 2.5], "texture": "#side"}
			}
		},
		{
			"from": [0, 15, 2],
			"to": [2, 16, 14],
			"faces": {
				"west": {"uv": [2, 0, 14, 1], "texture": "#side"},
				"up": {"uv": [0, 2, 2, 14], "texture": "#top"},
				"down": {"uv": [14, 2, 2, 0], "rotation": 270, "texture": "#side"}
			}
		},
		{
			"from": [2, 0, 14],
			"to": [14, 5, 16],
			"faces": {
				"south": {"uv": [2, 11, 14, 16], "texture": "#side"},
				"up": {"uv": [2, 13, 14, 11], "texture": "#side"},
				"down": {"uv": [2, 14, 14, 16], "rotation": 180, "texture": "#bottom"}
			}
		},
		{
			"from": [2, 5, 14],
			"to": [14, 6.5, 15],
			"faces": {
				"south": {"uv": [2, 9.5, 14, 11], "texture": "#side"}
			}
		},
		{
			"from": [2, 6.5, 14],
			"to": [14, 13.5, 16],
			"faces": {
				"north": {"uv": [0, 0, 12, 7], "texture": "#missing"},
				"south": {"uv": [2, 2.5, 14, 9.5], "texture": "#side"},
				"up": {"uv": [2, 4.5, 14, 2.5], "texture": "#side"},
				"down": {"uv": [2, 7.5, 14, 9.5], "rotation": 180, "texture": "#side"}
			}
		},
		{
			"from": [2, 13.5, 14],
			"to": [14, 15, 15],
			"faces": {
				"south": {"uv": [2, 1, 14, 2.5], "texture": "#side"}
			}
		},
		{
			"from": [2, 15, 14],
			"to": [14, 16, 16],
			"faces": {
				"south": {"uv": [2, 0, 14, 1], "texture": "#side"},
				"up": {"uv": [2, 14, 14, 16], "texture": "#top"},
				"down": {"uv": [14, 2, 2, 0], "texture": "#side"}
			}
		},
		{
			"from": [14, 0, 2],
			"to": [16, 5, 14],
			"faces": {
				"east": {"uv": [2, 11, 14, 16], "texture": "#side"},
				"up": {"uv": [2, 13, 14, 11], "rotation": 270, "texture": "#side"},
				"down": {"uv": [0, 2, 2, 14], "rotation": 180, "texture": "#bottom"}
			}
		},
		{
			"from": [14, 5, 2],
			"to": [15, 6.5, 14],
			"faces": {
				"east": {"uv": [2, 9.5, 14, 11], "texture": "#side"}
			}
		},
		{
			"from": [14, 6.5, 2],
			"to": [16, 13.5, 14],
			"faces": {
				"east": {"uv": [2, 2.5, 14, 9.5], "texture": "#side"},
				"west": {"uv": [0, 0, 12, 7], "texture": "#missing"},
				"up": {"uv": [2, 4.5, 14, 2.5], "rotation": 270, "texture": "#side"},
				"down": {"uv": [2, 7.5, 14, 9.5], "rotation": 270, "texture": "#side"}
			}
		},
		{
			"from": [14, 13.5, 2],
			"to": [15, 15, 14],
			"faces": {
				"east": {"uv": [2, 1, 14, 2.5], "texture": "#side"}
			}
		},
		{
			"from": [14, 15, 2],
			"to": [16, 16, 14],
			"faces": {
				"east": {"uv": [2, 0, 14, 1], "texture": "#side"},
				"up": {"uv": [14, 2, 16, 14], "texture": "#top"},
				"down": {"uv": [14, 2, 2, 0], "rotation": 90, "texture": "#side"}
			}
		},
		{
			"from": [5, 8, -0.25],
			"to": [11, 11.5, 0],
			"faces": {
				"north": {"uv": [2.5, 4.5, 8.5, 8], "texture": "#4"},
				"east": {"uv": [2.5, 4.5, 2.75, 8], "texture": "#4"},
				"west": {"uv": [8.25, 4.5, 8.5, 8], "texture": "#4"},
				"up": {"uv": [2.5, 4.5, 8.5, 4.75], "texture": "#4"},
				"down": {"uv": [2.5, 7.75, 8.5, 8], "texture": "#4"}
			}
		},
		{
			"from": [5, 8, 1.75],
			"to": [11, 11.5, 1.75],
			"faces": {
				"north": {"uv": [8.5, 4.5, 11, 8], "texture": "#front"}
			}
		},
		{
			"from": [2.5, 2, 0.5],
			"to": [13.5, 6.5, 0.5],
			"faces": {
				"north": {"uv": [2.5, 9.5, 13.5, 14], "texture": "#5"}
			}
		}
	],
	"groups": [
		0,
		1,
		2,
		3,
		4,
		5,
		6,
		7,
		8,
		9,
		10,
		11,
		12,
		13,
		{
			"name": "side",
			"origin": [0, 0, 0],
			"color": 0,
			"children": [14, 15, 16, 17, 18]
		},
		{
			"name": "side",
			"origin": [0, 0, 0],
			"color": 0,
			"children": [19, 20, 21, 22, 23]
		},
		{
			"name": "side",
			"origin": [0, 0, 0],
			"color": 0,
			"children": [24, 25, 26, 27, 28]
		},
		29,
		30,
		31
	]
}