{
	"credit": "Made with Blockbench",
	"parent": "block/thin_block",
	"textures": {
		"particle": "#top"
	},
	"elements": [
		{
			"name": "base",
			"from": [1, 1, 1],
			"to": [15, 5, 15],
			"faces": {
				"north": {"uv": [1, 11, 15, 15], "texture": "#side"},
				"east": {"uv": [1, 11, 15, 15], "texture": "#side"},
				"south": {"uv": [1, 11, 15, 15], "texture": "#side"},
				"west": {"uv": [1, 11, 15, 15], "texture": "#side"},
				"up": {"uv": [1, 1, 15, 15], "texture": "#top"},
				"down": {"uv": [1, 1, 15, 15], "texture": "#side"}
			}
		},
		{
			"from": [1, 5, 5],
			"to": [15, 6, 6],
			"faces": {
				"north": {"uv": [1, 5, 15, 6], "texture": "#side"},
				"south": {"uv": [1, 5, 15, 6], "texture": "#side"},
				"up": {"uv": [1, 5, 15, 6], "texture": "#side"}
			}
		},
		{
			"from": [1, 5, 10],
			"to": [15, 6, 11],
			"faces": {
				"north": {"uv": [1, 10, 15, 11], "texture": "#side"},
				"south": {"uv": [1, 10, 15, 11], "texture": "#side"},
				"up": {"uv": [1, 10, 15, 11], "texture": "#side"}
			}
		},
		{
			"from": [10, 5, 1],
			"to": [11, 6, 5],
			"faces": {
				"east": {"uv": [10, 1, 11, 5], "rotation": 90, "texture": "#side"},
				"west": {"uv": [10, 1, 11, 5], "rotation": 90, "texture": "#side"},
				"up": {"uv": [10, 1, 11, 5], "texture": "#side"}
			}
		},
		{
			"from": [5, 5, 1],
			"to": [6, 6, 5],
			"faces": {
				"east": {"uv": [5, 1, 6, 5], "rotation": 90, "texture": "#side"},
				"west": {"uv": [5, 1, 6, 5], "rotation": 90, "texture": "#side"},
				"up": {"uv": [5, 1, 6, 5], "texture": "#side"}
			}
		},
		{
			"from": [5, 5, 6],
			"to": [6, 6, 10],
			"faces": {
				"east": {"uv": [5, 6, 6, 10], "rotation": 90, "texture": "#side"},
				"west": {"uv": [5, 6, 6, 10], "rotation": 90, "texture": "#side"},
				"up": {"uv": [5, 6, 6, 10], "texture": "#side"}
			}
		},
		{
			"from": [10, 5, 6],
			"to": [11, 6, 10],
			"faces": {
				"east": {"uv": [10, 6, 11, 10], "rotation": 90, "texture": "#side"},
				"west": {"uv": [10, 6, 11, 10], "rotation": 90, "texture": "#side"},
				"up": {"uv": [10, 6, 11, 10], "texture": "#side"}
			}
		},
		{
			"from": [10, 5, 11],
			"to": [11, 6, 15],
			"faces": {
				"east": {"uv": [10, 11, 11, 15], "rotation": 90, "texture": "#side"},
				"west": {"uv": [10, 11, 11, 15], "rotation": 90, "texture": "#side"},
				"up": {"uv": [10, 11, 11, 15], "texture": "#side"}
			}
		},
		{
			"from": [5, 5, 11],
			"to": [6, 6, 15],
			"faces": {
				"east": {"uv": [5, 11, 6, 15], "rotation": 90, "texture": "#side"},
				"west": {"uv": [5, 11, 6, 15], "rotation": 90, "texture": "#side"},
				"up": {"uv": [5, 11, 6, 15], "texture": "#side"}
			}
		},
		{
			"from": [0, 5, 0],
			"to": [16, 6, 1],
			"faces": {
				"north": {"uv": [0, 10, 16, 11], "texture": "#side"},
				"east": {"uv": [15, 10, 16, 11], "texture": "#side"},
				"south": {"uv": [0, 0, 16, 1], "texture": "#side"},
				"west": {"uv": [0, 10, 1, 11], "texture": "#side"},
				"up": {"uv": [0, 0, 16, 1], "texture": "#side"},
				"down": {"uv": [0, 10, 16, 11], "texture": "#side"}
			}
		},
		{
			"from": [0, 5, 15],
			"to": [16, 6, 16],
			"faces": {
				"north": {"uv": [0, 15, 16, 16], "texture": "#side"},
				"east": {"uv": [0, 10, 1, 11], "texture": "#side"},
				"south": {"uv": [0, 10, 16, 11], "texture": "#side"},
				"west": {"uv": [15, 10, 16, 11], "texture": "#side"},
				"up": {"uv": [0, 15, 16, 16], "texture": "#side"},
				"down": {"uv": [0, 10, 16, 11], "texture": "#side"}
			}
		},
		{
			"from": [0, 5, 1],
			"to": [1, 6, 15],
			"faces": {
				"east": {"uv": [0, 1, 1, 15], "rotation": 90, "texture": "#side"},
				"west": {"uv": [1, 10, 15, 11], "texture": "#side"},
				"up": {"uv": [0, 1, 1, 15], "texture": "#side"},
				"down": {"uv": [1, 10, 15, 11], "rotation": 90, "texture": "#side"}
			}
		},
		{
			"from": [15, 5, 1],
			"to": [16, 6, 15],
			"faces": {
				"east": {"uv": [1, 10, 15, 11], "texture": "#side"},
				"west": {"uv": [15, 1, 16, 15], "rotation": 90, "texture": "#side"},
				"up": {"uv": [15, 1, 16, 15], "texture": "#side"},
				"down": {"uv": [1, 10, 15, 11], "rotation": 90, "texture": "#side"}
			}
		},
		{
			"from": [10, 1, 0],
			"to": [11, 5, 1],
			"rotation": {"angle": 0, "axis": "y", "origin": [8, 0, 8]},
			"faces": {
				"north": {"uv": [5, 11, 6, 15], "texture": "#side"},
				"east": {"uv": [5, 11, 6, 15], "texture": "#side"},
				"west": {"uv": [5, 11, 6, 15], "texture": "#side"}
			}
		},
		{
			"from": [5, 1, 0],
			"to": [6, 5, 1],
			"rotation": {"angle": 0, "axis": "y", "origin": [8, 0, 8]},
			"faces": {
				"north": {"uv": [10, 11, 11, 15], "texture": "#side"},
				"east": {"uv": [10, 11, 11, 15], "texture": "#side"},
				"west": {"uv": [10, 11, 11, 15], "texture": "#side"}
			}
		},
		{
			"from": [0, 1, 0],
			"to": [1, 5, 1],
			"rotation": {"angle": 0, "axis": "y", "origin": [8, 0, 8]},
			"faces": {
				"north": {"uv": [15, 11, 16, 15], "texture": "#side"},
				"east": {"uv": [15, 11, 16, 15], "texture": "#side"},
				"south": {"uv": [0, 11, 1, 15], "texture": "#side"},
				"west": {"uv": [0, 11, 1, 15], "texture": "#side"}
			}
		},
		{
			"from": [15, 1, 10],
			"to": [16, 5, 11],
			"rotation": {"angle": 0, "axis": "y", "origin": [8, 0, 8]},
			"faces": {
				"north": {"uv": [5, 11, 6, 15], "texture": "#side"},
				"east": {"uv": [5, 11, 6, 15], "texture": "#side"},
				"south": {"uv": [5, 11, 6, 15], "texture": "#side"}
			}
		},
		{
			"from": [15, 1, 5],
			"to": [16, 5, 6],
			"rotation": {"angle": 0, "axis": "y", "origin": [8, 0, 8]},
			"faces": {
				"north": {"uv": [10, 11, 11, 15], "texture": "#side"},
				"east": {"uv": [10, 11, 11, 15], "texture": "#side"},
				"south": {"uv": [10, 11, 11, 15], "texture": "#side"}
			}
		},
		{
			"from": [15, 1, 0],
			"to": [16, 5, 1],
			"rotation": {"angle": 0, "axis": "y", "origin": [8, 0, 8]},
			"faces": {
				"north": {"uv": [0, 11, 1, 15], "texture": "#side"},
				"east": {"uv": [15, 11, 16, 15], "texture": "#side"},
				"south": {"uv": [15, 11, 16, 15], "texture": "#side"},
				"west": {"uv": [0, 11, 1, 15], "texture": "#side"}
			}
		},
		{
			"from": [5, 1, 15],
			"to": [6, 5, 16],
			"rotation": {"angle": 0, "axis": "y", "origin": [8, 0, 8]},
			"faces": {
				"east": {"uv": [5, 11, 6, 15], "texture": "#side"},
				"south": {"uv": [5, 11, 6, 15], "texture": "#side"},
				"west": {"uv": [5, 11, 6, 15], "texture": "#side"}
			}
		},
		{
			"from": [10, 1, 15],
			"to": [11, 5, 16],
			"rotation": {"angle": 0, "axis": "y", "origin": [8, 0, 8]},
			"faces": {
				"east": {"uv": [10, 11, 11, 15], "texture": "#side"},
				"south": {"uv": [10, 11, 11, 15], "texture": "#side"},
				"west": {"uv": [10, 11, 11, 15], "texture": "#side"}
			}
		},
		{
			"from": [15, 1, 15],
			"to": [16, 5, 16],
			"rotation": {"angle": 0, "axis": "y", "origin": [8, 0, 8]},
			"faces": {
				"north": {"uv": [0, 11, 1, 15], "texture": "#side"},
				"east": {"uv": [0, 11, 1, 15], "texture": "#side"},
				"south": {"uv": [15, 11, 16, 15], "texture": "#side"},
				"west": {"uv": [15, 11, 16, 15], "texture": "#side"}
			}
		},
		{
			"from": [0, 1, 5],
			"to": [1, 5, 6],
			"rotation": {"angle": 0, "axis": "y", "origin": [8, 0, 8]},
			"faces": {
				"north": {"uv": [5, 11, 6, 15], "texture": "#side"},
				"south": {"uv": [5, 11, 6, 15], "texture": "#side"},
				"west": {"uv": [5, 11, 6, 15], "texture": "#side"}
			}
		},
		{
			"from": [0, 1, 10],
			"to": [1, 5, 11],
			"rotation": {"angle": 0, "axis": "y", "origin": [8, 0, 8]},
			"faces": {
				"north": {"uv": [10, 11, 11, 15], "texture": "#side"},
				"south": {"uv": [10, 11, 11, 15], "texture": "#side"},
				"west": {"uv": [10, 11, 11, 15], "texture": "#side"}
			}
		},
		{
			"from": [0, 1, 15],
			"to": [1, 5, 16],
			"rotation": {"angle": 0, "axis": "y", "origin": [8, 0, 8]},
			"faces": {
				"north": {"uv": [15, 11, 16, 15], "texture": "#side"},
				"east": {"uv": [0, 11, 1, 15], "texture": "#side"},
				"south": {"uv": [0, 11, 1, 15], "texture": "#side"},
				"west": {"uv": [15, 11, 16, 15], "texture": "#side"}
			}
		},
		{
			"from": [1, 0, 5],
			"to": [15, 1, 6],
			"faces": {
				"north": {"uv": [1, 5, 15, 6], "texture": "#side"},
				"south": {"uv": [1, 5, 15, 6], "texture": "#side"},
				"down": {"uv": [1, 5, 15, 6], "texture": "#side"}
			}
		},
		{
			"from": [1, 0, 10],
			"to": [15, 1, 11],
			"faces": {
				"north": {"uv": [1, 10, 15, 11], "texture": "#side"},
				"south": {"uv": [1, 10, 15, 11], "texture": "#side"},
				"down": {"uv": [1, 10, 15, 11], "texture": "#side"}
			}
		},
		{
			"from": [10, 0, 1],
			"to": [11, 1, 5],
			"faces": {
				"east": {"uv": [5, 1, 6, 5], "rotation": 90, "texture": "#side"},
				"west": {"uv": [5, 1, 6, 5], "rotation": 90, "texture": "#side"},
				"down": {"uv": [5, 1, 6, 5], "texture": "#side"}
			}
		},
		{
			"from": [5, 0, 1],
			"to": [6, 1, 5],
			"faces": {
				"east": {"uv": [10, 1, 11, 5], "rotation": 90, "texture": "#side"},
				"west": {"uv": [10, 1, 11, 5], "rotation": 90, "texture": "#side"},
				"down": {"uv": [10, 1, 11, 5], "texture": "#side"}
			}
		},
		{
			"from": [5, 0, 6],
			"to": [6, 1, 10],
			"faces": {
				"east": {"uv": [10, 6, 11, 10], "rotation": 90, "texture": "#side"},
				"west": {"uv": [10, 6, 11, 10], "rotation": 90, "texture": "#side"},
				"down": {"uv": [10, 6, 11, 10], "texture": "#side"}
			}
		},
		{
			"from": [10, 0, 6],
			"to": [11, 1, 10],
			"faces": {
				"east": {"uv": [5, 6, 6, 10], "rotation": 90, "texture": "#side"},
				"west": {"uv": [5, 6, 6, 10], "rotation": 90, "texture": "#side"},
				"down": {"uv": [5, 6, 6, 10], "texture": "#side"}
			}
		},
		{
			"from": [10, 0, 11],
			"to": [11, 1, 15],
			"faces": {
				"east": {"uv": [5, 11, 6, 15], "rotation": 90, "texture": "#side"},
				"west": {"uv": [5, 11, 6, 15], "rotation": 90, "texture": "#side"},
				"down": {"uv": [5, 11, 6, 15], "texture": "#side"}
			}
		},
		{
			"from": [5, 0, 11],
			"to": [6, 1, 15],
			"faces": {
				"east": {"uv": [10, 11, 11, 15], "rotation": 90, "texture": "#side"},
				"west": {"uv": [10, 11, 11, 15], "rotation": 90, "texture": "#side"},
				"down": {"uv": [10, 11, 11, 15], "texture": "#side"}
			}
		},
		{
			"from": [0, 0, 0],
			"to": [16, 1, 1],
			"faces": {
				"north": {"uv": [0, 15, 16, 16], "texture": "#side"},
				"east": {"uv": [15, 15, 16, 16], "texture": "#side"},
				"south": {"uv": [0, 0, 16, 1], "texture": "#side"},
				"west": {"uv": [0, 15, 1, 16], "texture": "#side"},
				"up": {"uv": [0, 15, 16, 16], "texture": "#side"},
				"down": {"uv": [0, 0, 16, 1], "texture": "#side"}
			}
		},
		{
			"from": [0, 0, 15],
			"to": [16, 1, 16],
			"faces": {
				"north": {"uv": [0, 0, 16, 1], "texture": "#side"},
				"east": {"uv": [0, 15, 1, 16], "texture": "#side"},
				"south": {"uv": [0, 15, 16, 16], "texture": "#side"},
				"west": {"uv": [15, 15, 16, 16], "texture": "#side"},
				"up": {"uv": [0, 15, 16, 16], "texture": "#side"},
				"down": {"uv": [0, 15, 16, 16], "texture": "#side"}
			}
		},
		{
			"from": [0, 0, 1],
			"to": [1, 1, 15],
			"faces": {
				"north": {"uv": [0, 0, 1, 1], "texture": "#side"},
				"east": {"uv": [0, 0, 14, 1], "texture": "#side"},
				"south": {"uv": [0, 0, 1, 1], "texture": "#side"},
				"west": {"uv": [1, 15, 15, 16], "texture": "#side"},
				"up": {"uv": [1, 15, 15, 16], "rotation": 90, "texture": "#side"},
				"down": {"uv": [15, 1, 16, 15], "texture": "#side"}
			}
		},
		{
			"from": [15, 0, 1],
			"to": [16, 1, 15],
			"faces": {
				"north": {"uv": [0, 0, 1, 1], "texture": "#side"},
				"east": {"uv": [1, 15, 15, 16], "texture": "#side"},
				"south": {"uv": [0, 0, 1, 1], "texture": "#side"},
				"west": {"uv": [0, 0, 14, 1], "texture": "#side"},
				"up": {"uv": [1, 15, 15, 16], "rotation": 90, "texture": "#side"},
				"down": {"uv": [0, 1, 1, 15], "texture": "#side"}
			}
		}
	],
	"groups": [
		0,
		{
			"name": "up",
			"origin": [8, 8, 8],
			"color": 0,
			"children": [
				{
					"name": "group",
					"origin": [0, 0, 0],
					"color": 0,
					"children": [1, 2, 3, 4, 5, 6, 7, 8]
				},
				9,
				10,
				11,
				12
			]
		},
		{
			"name": "middle",
			"origin": [8, 8, 8],
			"color": 0,
			"children": [13, 14, 15, 16, 17, 18, 19, 20, 21, 22, 23, 24]
		},
		{
			"name": "down",
			"origin": [8, 8, 8],
			"color": 0,
			"children": [
				{
					"name": "group",
					"origin": [0, 0, 0],
					"color": 0,
					"children": [25, 26, 27, 28, 29, 30, 31, 32]
				},
				33,
				34,
				35,
				36
			]
		}
	]
}