{
	"credit": "Made with Blockbench",
	"parent": "block/block",
	"ambientocclusion": false,
	"texture_size": [64, 64],
	"textures": {
		"0": "block/tnt_bottom",
		"1": "block/tnt_side",
		"2": "block/tnt_top",
		"particle": "block/tnt_bottom"
	},
	"elements": [
		{
			"name": "Bottom",
			"from": [0, 0, 0],
			"to": [16, 1.25, 16],
			"faces": {
				"north": {"uv": [0, 14.75, 16, 16], "texture": "#1"},
				"east": {"uv": [0, 14.75, 16, 16], "texture": "#1"},
				"south": {"uv": [0, 14.75, 16, 16], "texture": "#1"},
				"west": {"uv": [0, 14.75, 16, 16], "texture": "#1"},
				"up": {"uv": [0, 0, 16, 16], "texture": "#0"},
				"down": {"uv": [0, 0, 16, 16], "texture": "#0"}
			}
		},
		{
			"name": "Bottom",
			"from": [0, 14.75, 0],
			"to": [16, 16, 16],
			"faces": {
				"north": {"uv": [0, 0, 16, 1.25], "texture": "#1"},
				"east": {"uv": [0, 14.75, 16, 16], "texture": "#1"},
				"south": {"uv": [0, 14.75, 16, 16], "texture": "#1"},
				"west": {"uv": [0, 14.75, 16, 16], "texture": "#1"},
				"up": {"uv": [0, 0, 16, 16], "texture": "#2"},
				"down": {"uv": [0, 0, 16, 16], "texture": "#0"}
			}
		},
		{
			"name": "Main",
			"from": [0, 1.25, 0],
			"to": [16, 14.75, 16],
			"faces": {
				"north": {"uv": [0, 1.25, 16, 14.75], "texture": "#1"},
				"east": {"uv": [0, 1.25, 16, 14.75], "texture": "#1"},
				"south": {"uv": [0, 1.25, 16, 14.75], "texture": "#1"},
				"west": {"uv": [0, 1.25, 16, 14.75], "texture": "#1"},
				"up": {"uv": [0, 0, 4, 4], "texture": "#missing"},
				"down": {"uv": [0, 0, 4, 4], "texture": "#missing"}
			}
		},
		{
			"from": [-0.25, 13.5, -0.25],
			"to": [0, 14.75, 16.25],
			"faces": {
				"north": {"uv": [0.25, 13.5, 0, 14.75], "texture": "#1"},
				"east": {"uv": [0, 13.5, 16, 14.75], "texture": "#1"},
				"south": {"uv": [15.75, 13.5, 16, 14.75], "texture": "#1"},
				"west": {"uv": [0, 13.5, 16, 14.75], "texture": "#1"},
				"up": {"uv": [3, 13.5, 3.75, 13.75], "texture": "#1"},
				"down": {"uv": [4.5, 14.5, 5.25, 14.75], "texture": "#1"}
			}
		},
		{
			"from": [16, 13.5, -0.25],
			"to": [16.25, 14.75, 16.25],
			"faces": {
				"north": {"uv": [0.25, 13.5, 0, 14.75], "texture": "#1"},
				"east": {"uv": [0, 13.5, 16, 14.75], "texture": "#1"},
				"south": {"uv": [15.75, 13.5, 16, 14.75], "texture": "#1"},
				"west": {"uv": [0, 13.5, 16, 14.75], "texture": "#1"},
				"up": {"uv": [3, 13.5, 3.75, 13.75], "texture": "#1"},
				"down": {"uv": [4.5, 14.5, 5.25, 14.75], "texture": "#1"}
			}
		},
		{
			"from": [0, 13.5, -0.25],
			"to": [16, 14.75, 0],
			"faces": {
				"north": {"uv": [0.25, 13.5, 15.75, 14.75], "texture": "#1"},
				"east": {"uv": [7.5, 13.5, 7.75, 14.75], "texture": "#1"},
				"south": {"uv": [0, 13.5, 16, 14.75], "texture": "#1"},
				"west": {"uv": [0.25, 13.5, 0, 14.75], "texture": "#1"},
				"up": {"uv": [3, 13.5, 3.75, 13.75], "rotation": 270, "texture": "#1"},
				"down": {"uv": [4.5, 14.5, 5.25, 14.75], "rotation": 90, "texture": "#1"}
			}
		},
		{
			"from": [0, 13.5, 16],
			"to": [16, 14.75, 16.25],
			"faces": {
				"north": {"uv": [0.25, 13.5, 15.75, 14.75], "texture": "#1"},
				"east": {"uv": [7.5, 13.5, 7.75, 14.75], "texture": "#1"},
				"south": {"uv": [0.25, 13.5, 15.75, 14.75], "texture": "#1"},
				"west": {"uv": [0.25, 13.5, 0, 14.75], "texture": "#1"},
				"up": {"uv": [3, 13.5, 3.75, 13.75], "rotation": 270, "texture": "#1"},
				"down": {"uv": [4.5, 14.5, 5.25, 14.75], "rotation": 90, "texture": "#1"}
			}
		},
		{
			"from": [-0.25, 1.25, -0.25],
			"to": [0, 2.5, 16.25],
			"faces": {
				"north": {"uv": [0.25, 13.5, 0, 14.75], "texture": "#1"},
				"east": {"uv": [0, 13.5, 16, 14.75], "texture": "#1"},
				"south": {"uv": [15.75, 13.5, 16, 14.75], "texture": "#1"},
				"west": {"uv": [0, 13.5, 16, 14.75], "texture": "#1"},
				"up": {"uv": [3, 13.5, 3.75, 13.75], "texture": "#1"},
				"down": {"uv": [4.5, 14.5, 5.25, 14.75], "texture": "#1"}
			}
		},
		{
			"from": [16, 1.25, -0.25],
			"to": [16.25, 2.5, 16.25],
			"faces": {
				"north": {"uv": [0.25, 13.5, 0, 14.75], "texture": "#1"},
				"east": {"uv": [0, 13.5, 16, 14.75], "texture": "#1"},
				"south": {"uv": [15.75, 13.5, 16, 14.75], "texture": "#1"},
				"west": {"uv": [0, 13.5, 16, 14.75], "texture": "#1"},
				"up": {"uv": [3, 13.5, 3.75, 13.75], "texture": "#1"},
				"down": {"uv": [4.5, 14.5, 5.25, 14.75], "texture": "#1"}
			}
		},
		{
			"from": [0, 1.25, -0.25],
			"to": [16, 2.5, 0],
			"faces": {
				"north": {"uv": [0.25, 13.5, 15.75, 14.75], "texture": "#1"},
				"east": {"uv": [7.5, 13.5, 7.75, 14.75], "texture": "#1"},
				"south": {"uv": [0, 13.5, 16, 14.75], "texture": "#1"},
				"west": {"uv": [0.25, 13.5, 0, 14.75], "texture": "#1"},
				"up": {"uv": [3, 13.5, 3.75, 13.75], "rotation": 270, "texture": "#1"},
				"down": {"uv": [4.5, 14.5, 5.25, 14.75], "rotation": 90, "texture": "#1"}
			}
		},
		{
			"from": [0, 1.25, 16],
			"to": [16, 2.5, 16.25],
			"faces": {
				"north": {"uv": [0.25, 13.5, 15.75, 14.75], "texture": "#1"},
				"east": {"uv": [7.5, 13.5, 7.75, 14.75], "texture": "#1"},
				"south": {"uv": [0.25, 13.5, 15.75, 14.75], "texture": "#1"},
				"west": {"uv": [0.25, 13.5, 0, 14.75], "texture": "#1"},
				"up": {"uv": [3, 13.5, 3.75, 13.75], "rotation": 270, "texture": "#1"},
				"down": {"uv": [4.5, 14.5, 5.25, 14.75], "rotation": 90, "texture": "#1"}
			}
		},
		{
			"from": [-0.25, 4, -0.25],
			"to": [0, 5.25, 16.25],
			"faces": {
				"north": {"uv": [0.25, 13.5, 0, 14.75], "texture": "#1"},
				"east": {"uv": [0, 13.5, 16, 14.75], "texture": "#1"},
				"south": {"uv": [15.75, 13.5, 16, 14.75], "texture": "#1"},
				"west": {"uv": [0, 13.5, 16, 14.75], "texture": "#1"},
				"up": {"uv": [3, 13.5, 3.75, 13.75], "texture": "#1"},
				"down": {"uv": [4.5, 14.5, 5.25, 14.75], "texture": "#1"}
			}
		},
		{
			"from": [0, 10.75, 16],
			"to": [16, 12, 16.25],
			"faces": {
				"north": {"uv": [0.25, 13.5, 15.75, 14.75], "texture": "#1"},
				"east": {"uv": [7.5, 13.5, 7.75, 14.75], "texture": "#1"},
				"south": {"uv": [0.25, 13.5, 15.75, 14.75], "texture": "#1"},
				"west": {"uv": [0.25, 13.5, 0, 14.75], "texture": "#1"},
				"up": {"uv": [3, 13.5, 3.75, 13.75], "rotation": 270, "texture": "#1"},
				"down": {"uv": [4.5, 14.5, 5.25, 14.75], "rotation": 90, "texture": "#1"}
			}
		},
		{
			"from": [0, 10.75, -0.25],
			"to": [16, 12, 0],
			"faces": {
				"north": {"uv": [0.25, 13.5, 15.75, 14.75], "texture": "#1"},
				"east": {"uv": [7.5, 13.5, 7.75, 14.75], "texture": "#1"},
				"south": {"uv": [0, 13.5, 16, 14.75], "texture": "#1"},
				"west": {"uv": [0.25, 13.5, 0, 14.75], "texture": "#1"},
				"up": {"uv": [3, 13.5, 3.75, 13.75], "rotation": 270, "texture": "#1"},
				"down": {"uv": [4.5, 14.5, 5.25, 14.75], "rotation": 90, "texture": "#1"}
			}
		},
		{
			"from": [16, 10.75, -0.25],
			"to": [16.25, 12, 16.25],
			"faces": {
				"north": {"uv": [0.25, 13.5, 0, 14.75], "texture": "#1"},
				"east": {"uv": [0, 13.5, 16, 14.75], "texture": "#1"},
				"south": {"uv": [15.75, 13.5, 16, 14.75], "texture": "#1"},
				"west": {"uv": [0, 13.5, 16, 14.75], "texture": "#1"},
				"up": {"uv": [3, 13.5, 3.75, 13.75], "texture": "#1"},
				"down": {"uv": [4.5, 14.5, 5.25, 14.75], "texture": "#1"}
			}
		},
		{
			"from": [-0.25, 10.75, -0.25],
			"to": [0, 12, 16.25],
			"faces": {
				"north": {"uv": [0.25, 13.5, 0, 14.75], "texture": "#1"},
				"east": {"uv": [0, 13.5, 16, 14.75], "texture": "#1"},
				"south": {"uv": [15.75, 13.5, 16, 14.75], "texture": "#1"},
				"west": {"uv": [0, 13.5, 16, 14.75], "texture": "#1"},
				"up": {"uv": [3, 13.5, 3.75, 13.75], "texture": "#1"},
				"down": {"uv": [4.5, 14.5, 5.25, 14.75], "texture": "#1"}
			}
		},
		{
			"from": [16, 4, -0.25],
			"to": [16.25, 5.25, 16.25],
			"faces": {
				"north": {"uv": [0.25, 13.5, 0, 14.75], "texture": "#1"},
				"east": {"uv": [0, 13.5, 16, 14.75], "texture": "#1"},
				"south": {"uv": [15.75, 13.5, 16, 14.75], "texture": "#1"},
				"west": {"uv": [0, 13.5, 16, 14.75], "texture": "#1"},
				"up": {"uv": [3, 13.5, 3.75, 13.75], "texture": "#1"},
				"down": {"uv": [4.5, 14.5, 5.25, 14.75], "texture": "#1"}
			}
		},
		{
			"from": [0, 4, -0.25],
			"to": [16, 5.25, 0],
			"faces": {
				"north": {"uv": [0.25, 13.5, 15.75, 14.75], "texture": "#1"},
				"east": {"uv": [7.5, 13.5, 7.75, 14.75], "texture": "#1"},
				"south": {"uv": [0, 13.5, 16, 14.75], "texture": "#1"},
				"west": {"uv": [0.25, 13.5, 0, 14.75], "texture": "#1"},
				"up": {"uv": [3, 13.5, 3.75, 13.75], "rotation": 270, "texture": "#1"},
				"down": {"uv": [4.5, 14.5, 5.25, 14.75], "rotation": 90, "texture": "#1"}
			}
		},
		{
			"from": [0, 4, 16],
			"to": [16, 5.25, 16.25],
			"faces": {
				"north": {"uv": [0.25, 13.5, 15.75, 14.75], "texture": "#1"},
				"east": {"uv": [7.5, 13.5, 7.75, 14.75], "texture": "#1"},
				"south": {"uv": [0.25, 13.5, 15.75, 14.75], "texture": "#1"},
				"west": {"uv": [0.25, 13.5, 0, 14.75], "texture": "#1"},
				"up": {"uv": [3, 13.5, 3.75, 13.75], "rotation": 270, "texture": "#1"},
				"down": {"uv": [4.5, 14.5, 5.25, 14.75], "rotation": 90, "texture": "#1"}
			}
		}
	],
	"display": {},
	"groups": [
		{
			"name": "dynamite",
			"origin": [8, 8, 8],
			"color": 0,
			"children": [
				0,
				1,
				2,
				{
					"name": "Border_top",
					"origin": [0, 0, 0],
					"color": 0,
					"children": [3, 4, 5, 6]
				},
				{
					"name": "Border_lower",
					"origin": [0, 0, 0],
					"color": 0,
					"children": [7, 8, 9, 10]
				}
			]
		},
		{
			"name": "Frame",
			"origin": [8, 8, 8],
			"color": 0,
			"children": [11, 12, 13, 14, 15, 16, 17, 18]
		}
	]
}