{
	"credit": "Made with Blockbench",
	"parent": "block/fence_gate/fence_open",
	"textures": {
		"texture": "block/fence/fence_dark_oak_gate"
	},
	"elements": [
		{
			"from": [14, 9.5, 9],
			"to": [16, 12.5, 13],
			"rotation": {"angle": 0, "axis": "y", "origin": [0, -2.5, 0]},
			"faces": {
				"east": {"uv": [10, 1, 14, 4], "texture": "#texture"},
				"west": {"uv": [10, 1, 14, 4], "texture": "#texture"},
				"up": {"uv": [10, 7, 14, 9], "rotation": 90, "texture": "#texture"},
				"down": {"uv": [10, 7, 14, 9], "rotation": 90, "texture": "#texture"}
			}
		},
		{
			"from": [0, 1.5, 7],
			"to": [2, 14.5, 9],
			"rotation": {"angle": 0, "axis": "y", "origin": [0, -2.5, 0]},
			"faces": {
				"north": {"uv": [0, 0, 2, 11], "texture": "#texture"},
				"east": {"uv": [0, 0, 2, 11], "texture": "#texture"},
				"south": {"uv": [0, 0, 2, 11], "texture": "#texture"},
				"west": {"uv": [0, 0, 2, 11], "texture": "#texture", "cullface": "west"},
				"up": {"uv": [0, 7, 2, 9], "texture": "#texture"},
				"down": {"uv": [0, 7, 2, 9], "texture": "#texture"}
			}
		},
		{
			"from": [14, 1.5, 7],
			"to": [16, 14.5, 9],
			"rotation": {"angle": 0, "axis": "y", "origin": [0, -2.5, 0]},
			"faces": {
				"north": {"uv": [14, 0, 16, 11], "texture": "#texture"},
				"east": {"uv": [14, 0, 16, 11], "texture": "#texture", "cullface": "east"},
				"south": {"uv": [14, 0, 16, 11], "texture": "#texture"},
				"west": {"uv": [14, 0, 16, 11], "texture": "#texture"},
				"up": {"uv": [14, 7, 16, 9], "texture": "#texture"},
				"down": {"uv": [14, 7, 16, 9], "texture": "#texture"}
			}
		},
		{
			"from": [0, 3.5, 13],
			"to": [2, 12.5, 15],
			"rotation": {"angle": 0, "axis": "y", "origin": [0, -2.5, 0]},
			"faces": {
				"north": {"uv": [6, 1, 8, 10], "texture": "#texture"},
				"east": {"uv": [6, 1, 8, 10], "texture": "#texture"},
				"south": {"uv": [6, 1, 8, 10], "texture": "#texture"},
				"west": {"uv": [6, 1, 8, 10], "texture": "#texture"},
				"up": {"uv": [6, 7, 8, 9], "texture": "#texture"},
				"down": {"uv": [6, 7, 8, 9], "texture": "#texture"}
			}
		},
		{
			"from": [14, 3.5, 13],
			"to": [16, 12.5, 15],
			"rotation": {"angle": 0, "axis": "y", "origin": [0, -2.5, 0]},
			"faces": {
				"north": {"uv": [8, 1, 10, 10], "texture": "#texture"},
				"east": {"uv": [8, 1, 10, 10], "texture": "#texture"},
				"south": {"uv": [8, 1, 10, 10], "texture": "#texture"},
				"west": {"uv": [8, 1, 10, 10], "texture": "#texture"},
				"up": {"uv": [8, 7, 10, 9], "texture": "#texture"},
				"down": {"uv": [8, 7, 10, 9], "texture": "#texture"}
			}
		},
		{
			"from": [0, 3.5, 9],
			"to": [2, 6.5, 13],
			"rotation": {"angle": 0, "axis": "y", "origin": [0, -2.5, 0]},
			"faces": {
				"east": {"uv": [2, 7, 6, 10], "texture": "#texture"},
				"west": {"uv": [2, 7, 6, 10], "texture": "#texture"},
				"up": {"uv": [2, 7, 6, 9], "rotation": 90, "texture": "#texture"},
				"down": {"uv": [2, 7, 6, 9], "rotation": 90, "texture": "#texture"}
			}
		},
		{
			"from": [0, 9.5, 9],
			"to": [2, 12.5, 13],
			"rotation": {"angle": 0, "axis": "y", "origin": [0, -2.5, 0]},
			"faces": {
				"east": {"uv": [2, 1, 6, 4], "texture": "#texture"},
				"west": {"uv": [2, 1, 6, 4], "texture": "#texture"},
				"up": {"uv": [2, 7, 6, 9], "rotation": 90, "texture": "#texture"},
				"down": {"uv": [2, 7, 6, 9], "rotation": 90, "texture": "#texture"}
			}
		},
		{
			"from": [14, 3.5, 9],
			"to": [16, 6.5, 13],
			"rotation": {"angle": 0, "axis": "y", "origin": [0, -2.5, 0]},
			"faces": {
				"east": {"uv": [10, 7, 14, 10], "texture": "#texture"},
				"west": {"uv": [10, 7, 14, 10], "texture": "#texture"},
				"up": {"uv": [10, 7, 14, 9], "rotation": 90, "texture": "#texture"},
				"down": {"uv": [10, 7, 14, 9], "rotation": 90, "texture": "#texture"}
			}
		}
	]
}