{
	"credit": "Made with Blockbench",
	"parent": "minecraft:block/template_fence_gate",
	"textures": {
		"1": "block/fence/fence_spruce_side",
		"2": "block/fence/fence_spruce_gate",
		"particle": "block/fence/fence_spruce_side"
	},
	"elements": [
		{
			"from": [0, 0, 6],
			"to": [2, 16, 10],
			"faces": {
				"north": {"uv": [6, 0.5, 10, 15.5], "texture": "#1"},
				"east": {"uv": [6, 0.5, 10, 15.5], "texture": "#1"},
				"south": {"uv": [6, 0.5, 10, 15.5], "texture": "#1"},
				"west": {"uv": [6, 0.5, 10, 15.5], "texture": "#1"},
				"up": {"uv": [10, 1, 16, 4], "rotation": 90, "texture": "#1"},
				"down": {"uv": [10, 7, 16, 10], "rotation": 270, "texture": "#1"}
			}
		},
		{
			"from": [14, 0, 6],
			"to": [16, 16, 10],
			"rotation": {"angle": 0, "axis": "y", "origin": [15, 0, 8]},
			"faces": {
				"north": {"uv": [6, 0.5, 10, 15.5], "texture": "#1"},
				"east": {"uv": [6, 0.5, 10, 15.5], "texture": "#1"},
				"south": {"uv": [6, 0.5, 10, 15.5], "texture": "#1"},
				"west": {"uv": [6, 0.5, 10, 15.5], "texture": "#1"},
				"up": {"uv": [10, 1, 16, 4], "rotation": 270, "texture": "#1"},
				"down": {"uv": [10, 7, 16, 10], "rotation": 90, "texture": "#1"}
			}
		},
		{
			"from": [1, 5, -4],
			"to": [3, 15, -3],
			"rotation": {"angle": 0, "axis": "y", "origin": [1, 5, -4]},
			"faces": {
				"north": {"uv": [15.5, 11.75, 0.5, 16], "rotation": 90, "texture": "#2"},
				"east": {"uv": [0, 0, 2, 11], "texture": "#2"},
				"south": {"uv": [0.5, 11.75, 15.5, 16], "rotation": 90, "texture": "#2"},
				"west": {"uv": [0, 0, 2, 11], "texture": "#2"},
				"up": {"uv": [10, 1, 14, 4], "texture": "#2"},
				"down": {"uv": [10, 1, 14, 4], "texture": "#2"}
			}
		},
		{
			"from": [1.5, 10.5, -3],
			"to": [2.5, 14.5, 8],
			"rotation": {"angle": 0, "axis": "y", "origin": [1.5, 10.5, -3]},
			"faces": {
				"north": {"uv": [0, 0, 1, 4], "texture": "#missing"},
				"east": {"uv": [0.5, 11.75, 15.5, 16], "texture": "#2"},
				"south": {"uv": [0, 0, 2, 11], "texture": "#2"},
				"west": {"uv": [0, 12, 16, 16], "texture": "#2"},
				"up": {"uv": [8, 0.75, 10, 10], "texture": "#2"},
				"down": {"uv": [8, 0.75, 10, 10], "texture": "#2"}
			}
		},
		{
			"from": [1.5, 5.25, -3],
			"to": [2.5, 9.25, 8],
			"rotation": {"angle": 0, "axis": "y", "origin": [1.5, 5.25, -3]},
			"faces": {
				"north": {"uv": [0, 0, 1, 4], "texture": "#missing"},
				"east": {"uv": [0.5, 12, 15.5, 16], "texture": "#2"},
				"south": {"uv": [0, 0, 2, 11], "texture": "#2"},
				"west": {"uv": [0, 12, 16, 16], "texture": "#2"},
				"up": {"uv": [6, 1, 8, 10], "texture": "#2"},
				"down": {"uv": [6, 1, 8, 10], "texture": "#2"}
			}
		}
	],
	"display": {
		"thirdperson_righthand": {
			"rotation": [75, 30, 0],
			"translation": [0, 0.75, 0],
			"scale": [0.375, 0.375, 0.375]
		},
		"thirdperson_lefthand": {
			"rotation": [75, 30, 0],
			"translation": [0, 0.75, 0],
			"scale": [0.375, 0.375, 0.375]
		},
		"firstperson_righthand": {
			"rotation": [0, -60, 0],
			"scale": [0.5, 0.5, 0.5]
		},
		"firstperson_lefthand": {
			"rotation": [0, -60, 0],
			"scale": [0.5, 0.5, 0.5]
		},
		"ground": {
			"translation": [0, 3, 0],
			"scale": [0.5, 0.5, 0.5]
		},
		"gui": {
			"rotation": [30, 225, 0],
			"translation": [0, 0.5, 0],
			"scale": [0.7, 0.7, 0.7]
		},
		"fixed": {
			"scale": [0.7, 0.7, 0.7]
		}
	}
}