{
	"credit": "Made with Blockbench",
	"ambientocclusion": false,
	"textures": {
		"particle": "block/flower_pot/pot",
		"flowerpot": "block/flower_pot/pot",
		"dirt": "block/dirt/1"
	},
	"elements": [
		{
			"from": [5, 0, 5],
			"to": [6, 6, 11],
			"faces": {
				"north": {"uv": [10, 10, 11, 16], "texture": "#flowerpot"},
				"east": {"uv": [5, 10, 11, 16], "texture": "#flowerpot"},
				"south": {"uv": [5, 10, 6, 16], "texture": "#flowerpot"},
				"west": {"uv": [5, 10, 11, 16], "texture": "#flowerpot"},
				"up": {"uv": [5, 5, 6, 11], "texture": "#flowerpot"},
				"down": {"uv": [5, 5, 6, 11], "texture": "#flowerpot", "cullface": "down"}
			}
		},
		{
			"from": [10, 0, 5],
			"to": [11, 6, 11],
			"faces": {
				"north": {"uv": [5, 10, 6, 16], "texture": "#flowerpot"},
				"east": {"uv": [5, 10, 11, 16], "texture": "#flowerpot"},
				"south": {"uv": [10, 10, 11, 16], "texture": "#flowerpot"},
				"west": {"uv": [5, 10, 11, 16], "texture": "#flowerpot"},
				"up": {"uv": [10, 5, 11, 11], "texture": "#flowerpot"},
				"down": {"uv": [10, 5, 11, 11], "texture": "#flowerpot", "cullface": "down"}
			}
		},
		{
			"from": [6, 0, 5],
			"to": [10, 6, 6],
			"faces": {
				"north": {"uv": [6, 10, 10, 16], "texture": "#flowerpot"},
				"south": {"uv": [6, 10, 10, 16], "texture": "#flowerpot"},
				"up": {"uv": [6, 5, 10, 6], "texture": "#flowerpot"},
				"down": {"uv": [6, 10, 10, 11], "texture": "#flowerpot", "cullface": "down"}
			}
		},
		{
			"from": [6, 0, 10],
			"to": [10, 6, 11],
			"faces": {
				"north": {"uv": [6, 10, 10, 16], "texture": "#flowerpot"},
				"south": {"uv": [6, 10, 10, 16], "texture": "#flowerpot"},
				"up": {"uv": [6, 10, 10, 11], "texture": "#flowerpot"},
				"down": {"uv": [6, 5, 10, 6], "texture": "#flowerpot", "cullface": "down"}
			}
		},
		{
			"from": [6, 0, 6],
			"to": [10, 4, 10],
			"faces": {
				"up": {"uv": [6, 6, 10, 10], "texture": "#dirt"},
				"down": {"uv": [6, 11, 10, 15], "texture": "#flowerpot", "cullface": "down"}
			}
		},
		{
			"from": [4.9, 5, 4.9],
			"to": [11.1, 6, 5],
			"rotation": {"angle": 0, "axis": "y", "origin": [8, 6, 8]},
			"faces": {
				"north": {"uv": [5, 10, 11, 11], "texture": "#flowerpot"},
				"east": {"uv": [5, 10, 5.1, 11], "texture": "#flowerpot"},
				"west": {"uv": [10.875, 10, 10.975, 11], "texture": "#flowerpot"},
				"up": {"uv": [5, 10, 11, 10.1], "texture": "#flowerpot"},
				"down": {"uv": [5, 10.875, 11, 10.975], "texture": "#flowerpot"}
			}
		},
		{
			"from": [4.9, 5, 11],
			"to": [11.1, 6, 11.1],
			"rotation": {"angle": 0, "axis": "y", "origin": [8, 6, 8]},
			"faces": {
				"east": {"uv": [10.9, 10, 11, 11], "texture": "#flowerpot"},
				"south": {"uv": [5, 10, 11, 11], "texture": "#flowerpot"},
				"west": {"uv": [5, 10, 5.1, 11], "texture": "#flowerpot"},
				"up": {"uv": [5, 10, 11, 10.1], "rotation": 180, "texture": "#flowerpot"},
				"down": {"uv": [5, 10.875, 11, 10.975], "rotation": 180, "texture": "#flowerpot"}
			}
		},
		{
			"from": [4.9, 5, 5],
			"to": [5, 6, 11],
			"rotation": {"angle": 0, "axis": "y", "origin": [8, 6, 8]},
			"faces": {
				"west": {"uv": [5, 10, 11, 11], "texture": "#flowerpot"},
				"up": {"uv": [5, 10, 11, 10.1], "rotation": 270, "texture": "#flowerpot"},
				"down": {"uv": [5, 10.875, 11, 10.975], "rotation": 90, "texture": "#flowerpot"}
			}
		},
		{
			"from": [11, 5, 5],
			"to": [11.1, 6, 11],
			"rotation": {"angle": 0, "axis": "y", "origin": [8, 6, 8]},
			"faces": {
				"east": {"uv": [5, 10, 11, 11], "texture": "#flowerpot"},
				"up": {"uv": [5, 10, 11, 10.1], "rotation": 90, "texture": "#flowerpot"},
				"down": {"uv": [5, 10.875, 11, 10.975], "rotation": 270, "texture": "#flowerpot"}
			}
		}
	]
}