{
    "variants": {
        "facing=north": { "model": "block/pumpkin/carved" },
        "facing=south": { "model": "block/pumpkin/carved", "y": 180 },
        "facing=west":  { "model": "block/pumpkin/carved", "y": 270 },
        "facing=east":  { "model": "block/pumpkin/carved", "y": 90 }
    }
}
