{
    "variants": {
        "type=bottom": { "model": "block/slab/cobblestone_lower" },
        "type=top": { "model": "block/slab/cobblestone_upper" },
        "type=double": { "model": "block/slab/cobblestone_double" }
    }
}
