{
    "variants": {
        "": [
        	{ "model": "block/diorite/1" },
        	{ "model": "block/diorite/2" },
        	{ "model": "block/diorite/3" },
        	{ "model": "block/diorite/4" }
        ]
    }
}
