{
    "variants": {
        "": [
        	{ "model": "block/polished_diorite/1" },
        	{ "model": "block/polished_diorite/2" },
        	{ "model": "block/polished_diorite/3" },
        	{ "model": "block/polished_diorite/4" }
        ]
    }
}
