{
    "variants": {
        "facing=south": { "model": "block/glazed_terracotta/purple_south" },
        "facing=west": { "model": "block/glazed_terracotta/purple_west" },
        "facing=north": { "model": "block/glazed_terracotta/purple_north" },
        "facing=east": { "model": "block/glazed_terracotta/purple_east" }
    }
}
