{
    "variants": {
        "type=bottom": { "model": "block/slab/smooth_sandstone_lower" },
        "type=top": { "model": "block/slab/smooth_sandstone_upper" },
        "type=double": { "model": "block/slab/smooth_sandstone_double" }
    }
}
